SEM-3/Verilog-Codes/lab9/johnson_tb.vcd
$date
	Tue Nov 21 18:01:54 2023
$end
$version
	Icarus Verilog
$end
$timescale
	1ns
$end
$scope module johnson_tb $end
$var wire 4 ! w [3:0] $end
$var reg 1 " clk $end
$var reg 1 # reset $end
$scope module uut $end
$var wire 1 $ clk $end
$var wire 1 % reset $end
$var wire 4 & w [3:0] $end
$scope module stg0 $end
$var wire 1 $ clk $end
$var wire 1 ' d $end
$var wire 1 % reset $end
$var reg 1 ( q $end
$upscope $end
$scope module stg1 $end
$var wire 1 $ clk $end
$var wire 1 ) d $end
$var wire 1 % reset $end
$var reg 1 * q $end
$upscope $end
$scope module stg2 $end
$var wire 1 $ clk $end
$var wire 1 + d $end
$var wire 1 % reset $end
$var reg 1 , q $end
$upscope $end
$scope module stg3 $end
$var wire 1 $ clk $end
$var wire 1 - d $end
$var wire 1 % reset $end
$var reg 1 . q $end
$upscope $end
$upscope $end
$upscope $end
$enddefinitions $end
#0
$dumpvars
0.
0-
0,
0+
0*
0)
0(
1'
b0 &
1%
0$
1#
0"
b0 !
$end
#10
1"
1$
#20
0"
0$
0#
0%
#30
1)
1(
b1000 !
b1000 &
1"
1$
#40
0"
0$
#50
1+
1*
b1100 !
b1100 &
1"
1$
#60
0"
0$
#70
1-
1,
b1110 !
b1110 &
1"
1$
#80
0"
0$
#90
0'
1.
b1111 !
b1111 &
1"
1$
#100
0"
0$
#110
0)
0(
b111 !
b111 &
1"
1$
#120
0"
0$
#130
0+
0*
b11 !
b11 &
1"
1$
#140
0"
0$
#150
0-
0,
b1 !
b1 &
1"
1$
#160
0"
0$
#170
1'
0.
b0 !
b0 &
1"
1$
